%YAML 1.1
%TAG !u! tag:unity3d.com,2011:
--- !u!1001 &8209411154572601462
PrefabInstance:
  m_ObjectHideFlags: 0
  serializedVersion: 2
  m_Modification:
    m_TransformParent: {fileID: 0}
    m_Modifications:
    - target: {fileID: 6761795647141458767, guid: 09b39b0f9b6bd0c4183d39def8080578,
        type: 3}
      propertyPath: m_Name
      value: Pablo
      objectReference: {fileID: 0}
    - target: {fileID: 6761795647141458760, guid: 09b39b0f9b6bd0c4183d39def8080578,
        type: 3}
      propertyPath: m_LocalPosition.x
      value: 0
      objectReference: {fileID: 0}
    - target: {fileID: 6761795647141458760, guid: 09b39b0f9b6bd0c4183d39def8080578,
        type: 3}
      propertyPath: m_LocalPosition.y
      value: 0.5
      objectReference: {fileID: 0}
    - target: {fileID: 6761795647141458760, guid: 09b39b0f9b6bd0c4183d39def8080578,
        type: 3}
      propertyPath: m_LocalPosition.z
      value: 4
      objectReference: {fileID: 0}
    - target: {fileID: 6761795647141458760, guid: 09b39b0f9b6bd0c4183d39def8080578,
        type: 3}
      propertyPath: m_LocalRotation.x
      value: 0
      objectReference: {fileID: 0}
    - target: {fileID: 6761795647141458760, guid: 09b39b0f9b6bd0c4183d39def8080578,
        type: 3}
      propertyPath: m_LocalRotation.y
      value: 1
      objectReference: {fileID: 0}
    - target: {fileID: 6761795647141458760, guid: 09b39b0f9b6bd0c4183d39def8080578,
        type: 3}
      propertyPath: m_LocalRotation.z
      value: 0
      objectReference: {fileID: 0}
    - target: {fileID: 6761795647141458760, guid: 09b39b0f9b6bd0c4183d39def8080578,
        type: 3}
      propertyPath: m_LocalRotation.w
      value: 0
      objectReference: {fileID: 0}
    - target: {fileID: 6761795647141458760, guid: 09b39b0f9b6bd0c4183d39def8080578,
        type: 3}
      propertyPath: m_RootOrder
      value: 0
      objectReference: {fileID: 0}
    - target: {fileID: 6761795647141458760, guid: 09b39b0f9b6bd0c4183d39def8080578,
        type: 3}
      propertyPath: m_LocalEulerAnglesHint.x
      value: 0
      objectReference: {fileID: 0}
    - target: {fileID: 6761795647141458760, guid: 09b39b0f9b6bd0c4183d39def8080578,
        type: 3}
      propertyPath: m_LocalEulerAnglesHint.y
      value: 180
      objectReference: {fileID: 0}
    - target: {fileID: 6761795647141458760, guid: 09b39b0f9b6bd0c4183d39def8080578,
        type: 3}
      propertyPath: m_LocalEulerAnglesHint.z
      value: 0
      objectReference: {fileID: 0}
    - target: {fileID: 6761795646389389174, guid: 09b39b0f9b6bd0c4183d39def8080578,
        type: 3}
      propertyPath: m_Name
      value: PabloModel
      objectReference: {fileID: 0}
    - target: {fileID: 6761795646389389169, guid: 09b39b0f9b6bd0c4183d39def8080578,
        type: 3}
      propertyPath: m_Materials.Array.data[0]
      value: 
      objectReference: {fileID: 2100000, guid: 8929dd67592d48f498eb0675c2848c9d, type: 2}
    m_RemovedComponents:
    - {fileID: 6761795647141458763, guid: 09b39b0f9b6bd0c4183d39def8080578, type: 3}
    - {fileID: 6761795647141458762, guid: 09b39b0f9b6bd0c4183d39def8080578, type: 3}
    - {fileID: 6761795647141458761, guid: 09b39b0f9b6bd0c4183d39def8080578, type: 3}
  m_SourcePrefab: {fileID: 100100000, guid: 09b39b0f9b6bd0c4183d39def8080578, type: 3}
